Section 15: Linear Regression
…
monona_resids <- monona %>% 
  mutate(residuals = resid(lake_mod)) %>% 
  select(year1, duration, residuals)
  
monona_resids

## # A tibble: 170 × 3
##    year1 duration residuals
##    <dbl>    <dbl>     <dbl>
##  1  1855      118    -3.54 
##  2  1856      151    29.7  
##  3  1857      119    -2.10 
##  4  1858       94   -26.9  
##  5  1859      111    -9.65 
##  6  1860      129     8.58 
##  7  1861      133    12.8  
##  8  1862      119    -0.976
##  9  1863      131    11.2  
## 10  1864      117    -2.53 
## # ℹ 160 more rows
…
